Chapter: 10 network analysis | 個人プロジェクト
…
g<-tidygraph::as_tbl_graph(d,directed = FALSE)

g

## # A tbl_graph: 67 nodes and 135 edges
## #
## # An undirected simple graph with 1 component
## #
## # A tibble: 67 × 1
##   name          
##   <chr>         
## 1 Auchroisk     
## 2 Benrinnes     
## 3 Benromach     
## 4 BlairAthol    
## 5 RoyalLochnagar
## 6 Speyside      
## # ℹ 61 more rows
## #
## # A tibble: 135 × 3
##    from    to   cor
##   <int> <int> <dbl>
## 1     1    54 0.824
## 2     2    54 0.842
## 3     3    54 0.855
## # ℹ 132 more rows
…
## [1] 1

#媒介中心性の追加
g1<- g %>%
  mutate(centrality=centrality_betweenness())

g1

## # A tbl_graph: 67 nodes and 135 edges
## #
## # An undirected simple graph with 1 component
## #
## # A tibble: 67 × 2
##   name           centrality
##   <chr>               <dbl>
## 1 Auchroisk            174.
## 2 Benrinnes            122.
## 3 Benromach            411.
## 4 BlairAthol             0 
## 5 RoyalLochnagar       234.
## 6 Speyside             121.
## # ℹ 61 more rows
## #
## # A tibble: 135 × 3
##    from    to   cor
##   <int> <int> <dbl>
## 1     1    54 0.824
## 2     2    54 0.842
## 3     3    54 0.855
## # ℹ 132 more rows

#辺媒介中心性の追加
g2<-g %>% activate(edges) %>%
  mutate(importance = centrality_edge_betweenness())

g2

## # A tbl_graph: 67 nodes and 135 edges
## #
## # An undirected simple graph with 1 component
## #
## # A tibble: 135 × 4
##    from    to   cor importance
##   <int> <int> <dbl>      <dbl>
## 1     1    54 0.824       79.3
## 2     2    54 0.842       42.9
## 3     3    54 0.855       54.2
## 4     4    54 0.855       15.5
## 5     5    54 0.802       63.9
## 6     6    54 0.827       82.7
## # ℹ 129 more rows
## #
## # A tibble: 67 × 1
##   name     
##   <chr>    
## 1 Auchroisk
## 2 Benrinnes
## 3 Benromach
## # ℹ 64 more rows

#コミュニティ検出
g3<-g %>% 
  mutate(community=as.factor(group_fast_greedy(weights=cor)))

g3

## # A tbl_graph: 67 nodes and 135 edges
## #
## # An undirected simple graph with 1 component
## #
## # A tibble: 67 × 2
##   name           community
##   <chr>          <fct>    
## 1 Auchroisk      2        
## 2 Benrinnes      3        
## 3 Benromach      2        
## 4 BlairAthol     2        
## 5 RoyalLochnagar 2        
## 6 Speyside       3        
## # ℹ 61 more rows
## #
## # A tibble: 135 × 3
##    from    to   cor
##   <int> <int> <dbl>
## 1     1    54 0.824
## 2     2    54 0.842
## 3     3    54 0.855
## # ℹ 132 more rows
…
